calle;calleClean;name;surname;fiabilidad;gender;category;typeofroad;wikipedia
camí d'Orient al Castell d'Alaró;camí d'Orient al Castell d'Alaró;camí;d'Orient;0;Unknown;-;-;
Camí des Castell GR-221;Camí des Castell GR-221;Camí;des;0;Unknown;-;-;
Camí de s'Estret;Camí de s'Estret;Camí;de;0;Unknown;-;-;
Camí des Verger (GR-221);Camí des Verger (GR-221);Camí;des;0;Unknown;-;-;
GR-221;GR-221;GR-221;;0;Unknown;-;-;
Camí del castell GR-221;Camí del castell GR-221;Camí;del;0;Unknown;-;-;
Camí des Castell;Camí des Castell;Camí;des;0;Unknown;-;-;
Camí des Verger;Camí des Verger;Camí;des;0;Unknown;-;-;
Camí d'Orient al Castell d'Alaró;Camí d'Orient al Castell d'Alaró;Camí;d'Orient;0;Unknown;-;-;
pas de s'Escaleta;pas de s'Escaleta;pas;de;0;Unknown;-;-;
canaleta de Solleric;canaleta de Solleric;canaleta;de;0;Unknown;-;-;
carretera del Clot d'Almadrà;carretera del Clot d'Almadrà;carretera;del;0;Unknown;-;-;
camí vell de Solleric;camí vell de Solleric;camí;vell;0;Unknown;-;-;
camí de s'Alcadena;camí de s'Alcadena;camí;de;0;Unknown;-;-;
Carrer de Joan Alcover;Carrer de Joan Alcover;Carrer;de;2;Male;-;-;
Carrer Pere Rosselló i Oliver;Carrer Pere Rosselló i Oliver;Carrer;Pere;-2;Male;-;-;
Carrer de Solleric;Carrer de Solleric;Carrer;de;0;Unknown;-;-;
Cami de sa Sort (GR-221);Cami de sa Sort (GR-221);Cami;de;0;Unknown;-;-;
Carrer del Porrossar;Carrer del Porrossar;Carrer;del;0;Unknown;-;-;
Camí Vell d'Alaró;Camí Vell d'Alaró;Camí;Vell;0;Unknown;-;-;
Camí de Vela;Camí de Vela;Camí;de;0;Unknown;-;-;
camí des Raiguer;camí des Raiguer;camí;des;0;Unknown;-;-;
Carrer Nou;Carrer Nou;Carrer;Nou;0;Unknown;-;-;
Carrer del Germà Julio de la Salle;Carrer del Germà Julio de la Salle;Carrer;del;-2;Male;-;-;
Carrer de Son Amengual;Carrer de Son Amengual;Carrer;de;0;Unknown;-;-;
Carrer de Can Barbut;Carrer de Can Barbut;Carrer;de;-2;Unknown;-;-;
Carrer d'Alexandre Rosselló;Carrer d'Alexandre Rosselló;Carrer;d'Alexandre;0;Male;-;-;
Carrer de Can Ros;Carrer de Can Ros;Carrer;de;-2;Unknown;-;-;
Carrer del Camp Roig;Carrer del Camp Roig;Carrer;del;0;Unknown;-;-;
Carrer de Can Tocado;Carrer de Can Tocado;Carrer;de;-2;Male;-;-;
Carrer de Can Manyoles;Carrer de Can Manyoles;Carrer;de;-2;Male;-;-;
Carrer de Sant Roc;Carrer de Sant Roc;Carrer;de;-2;Male;-;-;
Carrer de Can Cresta;Carrer de Can Cresta;Carrer;de;-2;Unknown;-;-;
Carrer Petit;Carrer Petit;Carrer;Petit;0;Unknown;-;-;
Carrer de Sant Vicenç Ferrer;Carrer de Sant Vicenç Ferrer;Carrer;de;0;Male;-;-;
Carrer de Can Coxeti;Carrer de Can Coxeti;Carrer;de;-2;Unknown;-;-;
Carrer de Costa i Llobera;Carrer de Costa i Llobera;Carrer;de;0;Male;-;-;
Carrer de Joan Mir;Carrer de Joan Mir;Carrer;de;2;Male;-;-;
Carrer de la Rectoria;Carrer de la Rectoria;Carrer;de;0;Unknown;-;-;
Carrer de Son Antelm;Carrer de Son Antelm;Carrer;de;0;Unknown;-;-;
Carrer de Sant Bartomeu;Carrer de Sant Bartomeu;Carrer;de;-2;Male;-;-;
Carrer de Son Cladera;Carrer de Son Cladera;Carrer;de;0;Unknown;-;-;
Carrer de Can Palou;Carrer de Can Palou;Carrer;de;-2;Unknown;-;-;
Carrer Pintat;Carrer Pintat;Carrer;Pintat;0;Unknown;-;-;
Avinguda de la Constitució;inguda Constitució;inguda;Constitució;0;Unknown;-;-;
Carrer dels Germans Perelló;Carrer dels Germans Perelló;Carrer;dels;0;Male;-;-;
Plaça d'es Mercat;Plaça d'es Mercat;Plaça;d'es;0;Unknown;-;-;
Carrer de Can Xalet;Carrer de Can Xalet;Carrer;de;-2;Unknown;-;-;
Carrer de la Síquia;Carrer de la Síquia;Carrer;de;0;Unknown;-;-;
Carrer del Campanar;Carrer del Campanar;Carrer;del;0;Unknown;-;-;
Plaça de Sebastià Jaume;Plaça de Sebastià Jaume;Plaça;de;-2;Male;-;-;
Camí de Son Ribes;Camí de Son Ribes;Camí;de;0;Unknown;-;-;
Carrer de Son Sant Joan;Carrer de Son Sant Joan;Carrer;de;2;Unknown;-;-;
Carrer de Sa Gerreria;Carrer de Sa Gerreria;Carrer;de;0;Unknown;-;-;
Carrer de Son Sitges;Carrer de Son Sitges;Carrer;de;0;Unknown;-;-;
Passatge de Sa Gerreria;Passatge de Sa Gerreria;Passatge;de;0;Unknown;-;-;
Carrer de Blanca de Son Penyaflor;Carrer de Blanca de Son Penyaflor;Carrer;de;2;Female;-;-;
Carrer de Pere Sampol de Son Curt;Carrer de Pere Sampol de Son Curt;Carrer;de;-2;Male;-;-;
Carrer de les Sabateres;Carrer de les Sabateres;Carrer;de;0;Female;-;-;
Carrer d'Alexandre Fleming;Carrer d'Alexandre Fleming;Carrer;d'Alexandre;0;Male;-;-;
Carrer de Mossen Bartomeu Guasp i Gelabert;Carrer de Mossen Bartomeu Guasp i Gelabert;Carrer;de;-2;Male;-;-;
Carrer Joan Rosselló de Son Forteza;Carrer Joan Rosselló de Son Forteza;Carrer;Joan;2;Male;-;-;
Carrer de Llorenç Rosselló, esculptor;Carrer de Llorenç Rosselló, esculptor;Carrer;de;0;Male;-;-;
Carrer d'Antoni Maria Alcover;Carrer d'Antoni Maria Alcover;Carrer;d'Antoni;2;Male;-;-;
Carrer Escorxador;Carrer Escorxador;Carrer;Escorxador;0;Unknown;-;-;
Carrer del Puig de Sa Comuna;Carrer del Puig de Sa Comuna;Carrer;del;0;Unknown;-;-;
Carrer del Pujol;Carrer del Pujol;Carrer;del;0;Unknown;-;-;
Carrer de Sa Bastida;Carrer de Sa Bastida;Carrer;de;0;Unknown;-;-;
Plaça de Tià Roig;Plaça de Tià Roig;Plaça;de;0;Male;-;-;
Carrer de Son Duràn;Carrer de Son Duràn;Carrer;de;0;Unknown;-;-;
Carrer del Poador;Carrer del Poador;Carrer;del;0;Unknown;-;-;
carrer de Son Rafalet;carrer de Son Rafalet;carrer;de;0;Unknown;-;-;
Carrer de s'Hort d'en Tapí;Carrer de s'Hort d'en Tapí;Carrer;de;0;Unknown;-;-;
Carrer d'en Fonoll;Carrer d'en Fonoll;Carrer;d'en;0;Male;-;-;
Carrer de la Verge del Refugi;Carrer de la Verge del Refugi;Carrer;de;0;Female;-;-;
Camí de Sa Serreta;Camí de Sa Serreta;Camí;de;0;Unknown;-;-;
Carrer de Son Muntaner;Carrer de Son Muntaner;Carrer;de;0;Unknown;-;-;
Camí Vell d'Orient;Camí Vell d'Orient;Camí;Vell;0;Unknown;-;-;
camí de Son Penyaflor;camí de Son Penyaflor;camí;de;0;Unknown;-;-;
camí de sa Sacorrada;camí de sa Sacorrada;camí;de;0;Unknown;-;-;
camí de Son Fiol;camí de Son Fiol;camí;de;0;Unknown;-;-;
camí de sa Font de sa Bastida;camí de sa Font de sa Bastida;camí;de;0;Unknown;-;-;
camí del Clot del Guix;camí del Clot del Guix;camí;del;0;Unknown;-;-;
Ses Vinyetes;Ses Vinyetes;Ses;Vinyetes;0;Unknown;-;-;
Carreró de Can Manyoles;Carreró de Can Manyoles;Carreró;de;-2;Unknown;-;-;
Camí de Ses Barreres;Camí de Ses Barreres;Camí;de;0;Unknown;-;-;
Carrer del Metge Jaume Colom;Carrer del Metge Jaume Colom;Carrer;del;-2;Male;-;-;
Carrer Ca Na Fara;Carrer Ca Na Fara;Carrer;Ca;2;Unknown;-;-;
Plaça de la Vila;Plaça de la Vila;Plaça;de;0;Unknown;-;-;
Camí des Puig;Camí des Puig;Camí;des;0;Unknown;-;-;
Camí del Cementeri;Camí del Cementeri;Camí;del;0;Unknown;-;-;
Passatge Es Molí;Passatge Es Molí;Passatge;Es;0;Unknown;-;-;
Camí de Son Pol;Camí de Son Pol;Camí;de;-2;Unknown;-;-;
Carrer de Can Retat;Carrer de Can Retat;Carrer;de;-2;Unknown;-;-;
Carrer d'Enmig;Carrer d'Enmig;Carrer;d'Enmig;0;Unknown;-;-;
Carrer del Pontarró;Carrer del Pontarró;Carrer;del;0;Unknown;-;-;
Camí a Ses Costes de Son Palou;Camí a Ses Costes de Son Palou;Camí;a;0;Unknown;-;-;
Camí al Puig de Son Palou;Camí al Puig de Son Palou;Camí;al;0;Unknown;-;-;
Camí de sa Vinya Perdiguera;Camí de sa Vinya Perdiguera;Camí;de;0;Unknown;-;-;
Plaça del Rosari;Plaça del Rosari;Plaça;del;0;Unknown;-;-;
Plaça de Cabrit i Bassa;Plaça de Cabrit i Bassa;Plaça;de;0;Unknown;-;-;
Camí des Camp Roig;Camí des Camp Roig;Camí;des;0;Unknown;-;-;
Carreró de Son Seguí;Carreró de Son Seguí;Carreró;de;0;Unknown;-;-;
Camí de sa Font de ses Artigues;Camí de sa Font de ses Artigues;Camí;de;0;Unknown;-;-;
Carrer de Son Ros;Carrer de Son Ros;Carrer;de;0;Unknown;-;-;
Carrer de Tià Roig;Carrer de Tià Roig;Carrer;de;0;Male;-;-;
Camí de Son Penyaflor de Baix;Camí de Son Penyaflor de Baix;Camí;de;0;Unknown;-;-;
carrer del Torrent de S'Estret;carrer del Torrent de S'Estret;carrer;del;0;Unknown;-;-;
Carreró de Sa Bassa;Carreró de Sa Bassa;Carreró;de;0;Unknown;-;-;
camí de sa Teulera;camí de sa Teulera;camí;de;0;Unknown;-;-;
camí de Son Ferrer;camí de Son Ferrer;camí;de;0;Unknown;-;-;
camí de Son Guitart;camí de Son Guitart;camí;de;0;Unknown;-;-;
Carrer de Son Borràs;Carrer de Son Borràs;Carrer;de;0;Unknown;-;-;
camí de la cometa de Son Curt;camí de la cometa de Son Curt;camí;de;-2;Male;-;-;
Camí des Castell (GR-221);Camí des Castell (GR-221);Camí;des;0;Unknown;-;-;
camí d'Es Castellet;camí d'Es Castellet;camí;d'Es;0;Unknown;-;-;
carretera d'Alaró;carretera d'Alaró;carretera;d'Alaró;0;Unknown;-;-;
camí de Bànyols;camí de Bànyols;camí;de;0;Unknown;-;-;
camí de Can Peret;camí de Can Peret;camí;de;-2;Unknown;-;-;
camí des Pont Trencat;camí des Pont Trencat;camí;des;0;Unknown;-;-;
camí vell de Binissalem;camí vell de Binissalem;camí;vell;0;Unknown;-;-;
Camí d'Es Puig;Camí d'Es Puig;Camí;d'Es;0;Unknown;-;-;
pont de ses Mines;pont de ses Mines;pont;de;0;Unknown;-;-;
